{
  "app": {
    "http": {
      "listen": "0.0.0.0",
      "port": 9000
    },
    "cors": {
      "headers": [
        "Origin",
        "X-Requested-With",
        "Content-Type",
        "Accept",
        "Authorization"
      ]
    },
    "log": {
      "filename": "app.log",
      "level": "debug"
    }
  }
}